<?xml version="1.0" encoding="utf-8"?>
<!-- Generator: Adobe Illustrator 21.0.0, SVG Export Plug-In . SVG Version: 6.00 Build 0)  -->
<svg version="1.1" id="Слой_1" xmlns="http://www.w3.org/2000/svg"  x="0px" y="0px"
	 viewBox="0 0 98.1 75.8" style="enable-background:new 0 0 98.1 75.8;" xml:space="preserve">
<style type="text/css">
	.st0{fill:#D0D4D4;}
</style>
<g>
	<path class="st0" d="M0,40.7v1.9v1.9h15.6V42h9.1l5.5,5h14.7c-0.1,0.7-0.1,1.4-0.1,2.1c0,14.7,12,26.6,26.6,26.6
		c14.7,0,26.6-12,26.6-26.6c0-13.9-10.7-25.3-24.3-26.5L48.3,3.2H15.6V0H0v1.9v1.9h11.8v36.9H0z M94.3,49.2
		C94.3,61.8,84.1,72,71.5,72c-12.6,0-22.8-10.2-22.8-22.8c0-3,0.6-5.9,1.6-8.5l1.8,1.3c0.8,0.6,1.7,0.9,2.6,0.9c1.1,0,2.1-0.4,3-1.1
		l6.3-5.5c1-0.9,1.6-2.2,1.5-3.5c0-1.4-0.7-2.6-1.7-3.4l-1.3-1c2.8-1.2,5.8-1.9,9-1.9C84.1,26.3,94.3,36.6,94.3,49.2z M15.6,7H47
		l20.7,15.8c-3.1,0.4-6,1.4-8.7,2.8L45.2,14.8L44,16.3l-1.2,1.5l18.6,14.4c0.2,0.1,0.3,0.3,0.3,0.5c0,0.2-0.1,0.4-0.2,0.6l-6.3,5.5
		c-0.3,0.2-0.6,0.2-0.9,0L39.8,28.4l-3.7,2.9c-0.3,0.2-0.6,0.2-0.9,0l-5.5-3.9l-0.5-0.3L27,30.2l6,4.2c1.6,1.1,3.8,1.1,5.4-0.1
		l1.5-1.1l7.3,5.2c-0.7,1.5-1.2,3.2-1.6,4.9H31.7l-5.5-5H15.6V7z"/>
	<polygon class="st0" points="71.2,65.7 75,65.7 75,62.6 79.8,62.6 79.8,60.7 79.8,48.2 77.9,48.3 70.2,48.3 70.2,41.5 79.8,41.5
		79.8,37.7 75,37.7 75,34.6 71.2,34.6 71.2,37.7 66.4,37.7 66.4,50.2 66.4,52.1 76,52.1 76,58.8 66.4,58.8 66.4,62.6 71.2,62.6 	"/>
</g>
</svg>
