<?xml version="1.0" encoding="utf-8"?>
<!-- Generator: Adobe Illustrator 21.0.0, SVG Export Plug-In . SVG Version: 6.00 Build 0)  -->
<svg version="1.1" id="Слой_1" xmlns="http://www.w3.org/2000/svg" xmlns:xlink="http://www.w3.org/1999/xlink" x="0px" y="0px"
	 viewBox="0 0 24 24" style="enable-background:new 0 0 24 24;" xml:space="preserve">
<style type="text/css">
	.st0{fill:#757575;}
	.st1{fill:none;}
</style>
<path class="st0" d="M22,8c0-0.7-0.4-1.3-0.9-1.7L12,1L3,6.3C2.4,6.7,2,7.3,2,8v10c0,1.1,0.9,2,2,2h16c1.1,0,2-0.9,2-2L22,8z M12,13
	L3.7,7.8L12,3l8.3,4.8L12,13z"/>
<path class="st1" d="M0,0h24v24H0V0z"/>
</svg>
