<?xml version="1.0" encoding="utf-8"?>
<!-- Generator: Adobe Illustrator 21.0.0, SVG Export Plug-In . SVG Version: 6.00 Build 0)  -->
<svg version="1.1" id="Слой_1" xmlns="http://www.w3.org/2000/svg" xmlns:xlink="http://www.w3.org/1999/xlink" x="0px" y="0px"
	 viewBox="0 0 24 24" style="enable-background:new 0 0 24 24;" xml:space="preserve">
<style type="text/css">
	.st0{fill:#797979;}
	.st1{fill:none;}
</style>
<path class="st0" d="M15,15H3v2h12V15z M15,7H3v2h12V7z M3,13h18v-2H3V13z M3,21h18v-2H3V21z M3,3v2h18V3H3z"/>
<path class="st1" d="M0,0h24v24H0V0z"/>
</svg>
