<?xml version="1.0" encoding="utf-8"?>
<!-- Generator: Adobe Illustrator 21.0.0, SVG Export Plug-In . SVG Version: 6.00 Build 0)  -->
<svg version="1.1" id="Слой_1" xmlns="http://www.w3.org/2000/svg" xmlns:xlink="http://www.w3.org/1999/xlink" x="0px" y="0px"
	 viewBox="0 0 20 19" style="enable-background:new 0 0 20 19;" xml:space="preserve">
<style type="text/css">
	.st0{fill:#FE9E00;}
	.st1{fill:none;}
</style>
<g id="Слой_1_1_">
	<path class="st0" d="M20,7.2l-7.2-0.6L10,0L7.2,6.6L0,7.2L5.5,12l-1.6,7l6.2-3.7l6.2,3.7l-1.6-7L20,7.2z M10,13.4l-3.8,2.3l1-4.3
		L3.9,8.5l4.4-0.4l1.7-4l1.7,4l4.4,0.4l-3.3,2.9l1,4.3L10,13.4z"/>
	<path class="st1" d="M-2-2h24v24H-2V-2z"/>
</g>
<g id="Слой_2">
	<polygon class="st0" points="6.7,15.7 4.7,15.7 5.2,12 3.9,8.5 6.7,8.2 	"/>
</g>
</svg>
