<?xml version="1.0" encoding="utf-8"?>
<!-- Generator: Adobe Illustrator 21.0.0, SVG Export Plug-In . SVG Version: 6.00 Build 0)  -->
<svg version="1.1" id="Слой_1" xmlns="http://www.w3.org/2000/svg"  x="0px" y="0px"
	 viewBox="0 0 82.9 115.8" style="enable-background:new 0 0 82.9 115.8;" xml:space="preserve">
<style type="text/css">
	.st0{fill:#00C3F1;}
</style>
<g>
	<path class="st0" d="M39.7,14.2c0-6.3-5.1-11.4-11.4-11.4S17,8,17,14.2c0,6.3,5.1,11.4,11.4,11.4S39.7,20.5,39.7,14.2z M21,14.2
		c0-4.1,3.3-7.4,7.4-7.4c4.1,0,7.4,3.3,7.4,7.4c0,4.1-3.3,7.4-7.4,7.4C24.3,21.6,21,18.3,21,14.2z"/>
	<polygon class="st0" points="4.6,47.1 8.4,48 10.7,38.9 22.2,34 34.5,34 45.9,38.9 48.2,48.1 52.1,47.1 49.3,36 35.3,30 21.4,30
		7.3,36 	"/>
	<path class="st0" d="M0,71.4l5.6,3v39.5h45.5V74.4l5.6-3V54.8H0V71.4z M4,58.8h48.6V69l-4.1,2.2h-9.2v4h7.7v34.7H9.6V75.2h7.7v-4
		H8.1L4,69V58.8z"/>
	<path class="st0" d="M59.4,35.7l12.8-12.5h10.7V0H47.4v23.3h9.3L59.4,35.7z M51.4,4h27.5v15.3h-8.4l-8.7,8.6l-1.8-8.6h-8.5V4z"/>
</g>
</svg>
